%!PS-Adobe-3.0 EPSF-3.0
%%Creator: cairo 1.11.2 (http://cairographics.org)
%%CreationDate: Sun Mar 13 15:44:09 2016
%%Pages: 1
%%DocumentData: Clean7Bit
%%LanguageLevel: 2
%%BoundingBox: 0 -1 770 326
%%EndComments
%%BeginProlog
/cairo_eps_state save def
/dict_count countdictstack def
/op_count count 1 sub def
userdict begin
/q { gsave } bind def
/Q { grestore } bind def
/cm { 6 array astore concat } bind def
/w { setlinewidth } bind def
/J { setlinecap } bind def
/j { setlinejoin } bind def
/M { setmiterlimit } bind def
/d { setdash } bind def
/m { moveto } bind def
/l { lineto } bind def
/c { curveto } bind def
/h { closepath } bind def
/re { exch dup neg 3 1 roll 5 3 roll moveto 0 rlineto
      0 exch rlineto 0 rlineto closepath } bind def
/S { stroke } bind def
/f { fill } bind def
/f* { eofill } bind def
/n { newpath } bind def
/W { clip } bind def
/W* { eoclip } bind def
/BT { } bind def
/ET { } bind def
/pdfmark where { pop globaldict /?pdfmark /exec load put }
    { globaldict begin /?pdfmark /pop load def /pdfmark
    /cleartomark load def end } ifelse
/BDC { mark 3 1 roll /BDC pdfmark } bind def
/EMC { mark /EMC pdfmark } bind def
/cairo_store_point { /cairo_point_y exch def /cairo_point_x exch def } def
/Tj { show currentpoint cairo_store_point } bind def
/TJ {
  {
    dup
    type /stringtype eq
    { show } { -0.001 mul 0 cairo_font_matrix dtransform rmoveto } ifelse
  } forall
  currentpoint cairo_store_point
} bind def
/cairo_selectfont { cairo_font_matrix aload pop pop pop 0 0 6 array astore
    cairo_font exch selectfont cairo_point_x cairo_point_y moveto } bind def
/Tf { pop /cairo_font exch def /cairo_font_matrix where
      { pop cairo_selectfont } if } bind def
/Td { matrix translate cairo_font_matrix matrix concatmatrix dup
      /cairo_font_matrix exch def dup 4 get exch 5 get cairo_store_point
      /cairo_font where { pop cairo_selectfont } if } bind def
/Tm { 2 copy 8 2 roll 6 array astore /cairo_font_matrix exch def
      cairo_store_point /cairo_font where { pop cairo_selectfont } if } bind def
/g { setgray } bind def
/rg { setrgbcolor } bind def
/d1 { setcachedevice } bind def
%%EndProlog
%%Page: 1 1
%%BeginPageSetup
%%PageBoundingBox: 0 -1 770 326
%%EndPageSetup
q 0 -1 770 327 rectclip q
0 325.906 770 -326 re W n
0 g
3.2 w
0 J
0 j
[] 0.0 d
4 M q 1 0 0 -1 0 325.905701 cm
0.801 277.895 m 32.801 261.895 4.738 262.063 204.652 247.039 c 432.801 
229.895 351.492 -75.719 402.418 20.172 c 496.801 197.895 480.801 197.895
 768.801 277.895 c S Q
0.8 w
q 1 0 0 -1 0 325.905701 cm
0.801 277.895 m 768.801 277.895 l S Q
1.6 w
q 1 0 0 -1 0 325.905701 cm
0.801 309.895 m 768.801 309.895 l S Q
q 1 0 0 -1 0 325.905701 cm
0.801 325.895 m 0.801 293.895 l S Q
q 1 0 0 -1 0 325.905701 cm
768.801 325.895 m 768.801 293.895 l S Q
q 1 0 0 -1 0 325.905701 cm
0.801 325.895 m 0.801 293.895 l S Q
q 1 0 0 -1 0 325.905701 cm
768.801 293.895 m 768.801 325.895 l S Q
1 0 0 rg
69.289 67.539 m 69.289 65.328 67.496 63.539 65.289 63.539 c 63.078 63.539
 61.289 65.328 61.289 67.539 c 61.289 69.746 63.078 71.539 65.289 71.539
 c 67.496 71.539 69.289 69.746 69.289 67.539 c h
f
1 J
1 j
q 1 0 0 -1 0 325.905701 cm
69.289 258.367 m 69.289 260.578 67.496 262.367 65.289 262.367 c 63.078 
262.367 61.289 260.578 61.289 258.367 c 61.289 256.16 63.078 254.367 65.289
 254.367 c 67.496 254.367 69.289 256.16 69.289 258.367 c h
S Q
404.516 309.796 m 404.516 307.585 402.723 305.796 400.516 305.796 c 398.305
 305.796 396.516 307.585 396.516 309.796 c 396.516 312.003 398.305 313.796
 400.516 313.796 c 402.723 313.796 404.516 312.003 404.516 309.796 c h
f
q 1 0 0 -1 0 325.905701 cm
404.516 16.109 m 404.516 18.32 402.723 20.109 400.516 20.109 c 398.305 
20.109 396.516 18.32 396.516 16.109 c 396.516 13.902 398.305 12.109 400.516
 12.109 c 402.723 12.109 404.516 13.902 404.516 16.109 c h
S Q
340.801 150.867 m 340.801 148.66 339.008 146.867 336.801 146.867 c 334.59
 146.867 332.801 148.66 332.801 150.867 c 332.801 153.078 334.59 154.867
 336.801 154.867 c 339.008 154.867 340.801 153.078 340.801 150.867 c h
f
q 1 0 0 -1 0 325.905701 cm
340.801 175.039 m 340.801 177.246 339.008 179.039 336.801 179.039 c 334.59
 179.039 332.801 177.246 332.801 175.039 c 332.801 172.828 334.59 171.039
 336.801 171.039 c 339.008 171.039 340.801 172.828 340.801 175.039 c h
S Q
276.801 97.152 m 276.801 94.945 275.008 93.152 272.801 93.152 c 270.59 
93.152 268.801 94.945 268.801 97.152 c 268.801 99.363 270.59 101.152 272.801
 101.152 c 275.008 101.152 276.801 99.363 276.801 97.152 c h
f
q 1 0 0 -1 0 325.905701 cm
276.801 228.754 m 276.801 230.961 275.008 232.754 272.801 232.754 c 270.59
 232.754 268.801 230.961 268.801 228.754 c 268.801 226.543 270.59 224.754
 272.801 224.754 c 275.008 224.754 276.801 226.543 276.801 228.754 c h
S Q
132.801 74.296 m 132.801 72.085 131.008 70.296 128.801 70.296 c 126.59 
70.296 124.801 72.085 124.801 74.296 c 124.801 76.503 126.59 78.296 128.801
 78.296 c 131.008 78.296 132.801 76.503 132.801 74.296 c h
f
q 1 0 0 -1 0 325.905701 cm
132.801 251.609 m 132.801 253.82 131.008 255.609 128.801 255.609 c 126.59
 255.609 124.801 253.82 124.801 251.609 c 124.801 249.402 126.59 247.609
 128.801 247.609 c 131.008 247.609 132.801 249.402 132.801 251.609 c h
S Q
515.656 140.581 m 515.656 138.374 513.867 136.581 511.656 136.581 c 509.449
 136.581 507.656 138.374 507.656 140.581 c 507.656 142.792 509.449 144.581
 511.656 144.581 c 513.867 144.581 515.656 142.792 515.656 140.581 c h
f
q 1 0 0 -1 0 325.905701 cm
515.656 185.324 m 515.656 187.531 513.867 189.324 511.656 189.324 c 509.449
 189.324 507.656 187.531 507.656 185.324 c 507.656 183.113 509.449 181.324
 511.656 181.324 c 513.867 181.324 515.656 183.113 515.656 185.324 c h
S Q
660.801 80.011 m 660.801 77.8 659.008 76.011 656.801 76.011 c 654.59 76.011
 652.801 77.8 652.801 80.011 c 652.801 82.218 654.59 84.011 656.801 84.011
 c 659.008 84.011 660.801 82.218 660.801 80.011 c h
f
q 1 0 0 -1 0 325.905701 cm
660.801 245.895 m 660.801 248.105 659.008 249.895 656.801 249.895 c 654.59
 249.895 652.801 248.105 652.801 245.895 c 652.801 243.688 654.59 241.895
 656.801 241.895 c 659.008 241.895 660.801 243.688 660.801 245.895 c h
S Q
724.801 61.726 m 724.801 59.515 723.008 57.726 720.801 57.726 c 718.59 
57.726 716.801 59.515 716.801 61.726 c 716.801 63.933 718.59 65.726 720.801
 65.726 c 723.008 65.726 724.801 63.933 724.801 61.726 c h
f
q 1 0 0 -1 0 325.905701 cm
724.801 264.18 m 724.801 266.391 723.008 268.18 720.801 268.18 c 718.59
 268.18 716.801 266.391 716.801 264.18 c 716.801 261.973 718.59 260.18 720.801
 260.18 c 723.008 260.18 724.801 261.973 724.801 264.18 c h
S Q
Q Q
showpage
%%Trailer
count op_count sub {pop} repeat
countdictstack dict_count sub {end} repeat
cairo_eps_state restore
%%EOF
