%!PS-Adobe-3.0 EPSF-3.0
%%Creator: cairo 1.11.2 (http://cairographics.org)
%%CreationDate: Sun Mar 13 15:46:09 2016
%%Pages: 1
%%DocumentData: Clean7Bit
%%LanguageLevel: 2
%%BoundingBox: 0 -1 772 326
%%EndComments
%%BeginProlog
/cairo_eps_state save def
/dict_count countdictstack def
/op_count count 1 sub def
userdict begin
/q { gsave } bind def
/Q { grestore } bind def
/cm { 6 array astore concat } bind def
/w { setlinewidth } bind def
/J { setlinecap } bind def
/j { setlinejoin } bind def
/M { setmiterlimit } bind def
/d { setdash } bind def
/m { moveto } bind def
/l { lineto } bind def
/c { curveto } bind def
/h { closepath } bind def
/re { exch dup neg 3 1 roll 5 3 roll moveto 0 rlineto
      0 exch rlineto 0 rlineto closepath } bind def
/S { stroke } bind def
/f { fill } bind def
/f* { eofill } bind def
/n { newpath } bind def
/W { clip } bind def
/W* { eoclip } bind def
/BT { } bind def
/ET { } bind def
/pdfmark where { pop globaldict /?pdfmark /exec load put }
    { globaldict begin /?pdfmark /pop load def /pdfmark
    /cleartomark load def end } ifelse
/BDC { mark 3 1 roll /BDC pdfmark } bind def
/EMC { mark /EMC pdfmark } bind def
/cairo_store_point { /cairo_point_y exch def /cairo_point_x exch def } def
/Tj { show currentpoint cairo_store_point } bind def
/TJ {
  {
    dup
    type /stringtype eq
    { show } { -0.001 mul 0 cairo_font_matrix dtransform rmoveto } ifelse
  } forall
  currentpoint cairo_store_point
} bind def
/cairo_selectfont { cairo_font_matrix aload pop pop pop 0 0 6 array astore
    cairo_font exch selectfont cairo_point_x cairo_point_y moveto } bind def
/Tf { pop /cairo_font exch def /cairo_font_matrix where
      { pop cairo_selectfont } if } bind def
/Td { matrix translate cairo_font_matrix matrix concatmatrix dup
      /cairo_font_matrix exch def dup 4 get exch 5 get cairo_store_point
      /cairo_font where { pop cairo_selectfont } if } bind def
/Tm { 2 copy 8 2 roll 6 array astore /cairo_font_matrix exch def
      cairo_store_point /cairo_font where { pop cairo_selectfont } if } bind def
/g { setgray } bind def
/rg { setrgbcolor } bind def
/d1 { setcachedevice } bind def
%%EndProlog
%%Page: 1 1
%%BeginPageSetup
%%PageBoundingBox: 0 -1 772 326
%%EndPageSetup
q 0 -1 772 327 rectclip q
0 325.906 772 -326 re W n
0 g
3.2 w
0 J
0 j
[] 0.0 d
4 M q 1 0 0 -1 0 325.905701 cm
1.602 277.895 m 33.602 261.895 5.539 262.063 205.453 247.039 c 433.602 
229.895 352.293 -75.719 403.219 20.172 c 497.602 197.895 481.602 197.895
 769.602 277.895 c S Q
0.8 w
q 1 0 0 -1 0 325.905701 cm
1.602 277.895 m 769.602 277.895 l S Q
1.6 w
q 1 0 0 -1 0 325.905701 cm
1.602 309.895 m 769.602 309.895 l S Q
q 1 0 0 -1 0 325.905701 cm
1.602 325.895 m 1.602 293.895 l S Q
q 1 0 0 -1 0 325.905701 cm
769.602 325.895 m 769.602 293.895 l S Q
q 1 0 0 -1 0 325.905701 cm
1.602 325.895 m 1.602 293.895 l S Q
q 1 0 0 -1 0 325.905701 cm
97.602 293.895 m 97.602 325.895 l S Q
q 1 0 0 -1 0 325.905701 cm
193.602 293.895 m 193.602 325.895 l S Q
q 1 0 0 -1 0 325.905701 cm
289.602 293.895 m 289.602 325.895 l S Q
q 1 0 0 -1 0 325.905701 cm
385.602 293.895 m 385.602 325.895 l S Q
q 1 0 0 -1 0 325.905701 cm
481.602 293.895 m 481.602 325.895 l S Q
q 1 0 0 -1 0 325.905701 cm
577.602 293.895 m 577.602 325.895 l S Q
q 1 0 0 -1 0 325.905701 cm
673.602 293.895 m 673.602 325.895 l S Q
q 1 0 0 -1 0 325.905701 cm
769.602 293.895 m 769.602 325.895 l S Q
0 0 1 rg
0.8 w
q 1 0 0 -1 0 325.905701 cm
49.602 293.895 m 49.602 325.895 l S Q
q 1 0 0 -1 0 325.905701 cm
145.602 293.895 m 145.602 325.895 l S Q
q 1 0 0 -1 0 325.905701 cm
225.602 293.895 m 225.602 325.895 l S Q
q 1 0 0 -1 0 325.905701 cm
257.602 293.895 m 257.602 325.895 l S Q
q 1 0 0 -1 0 325.905701 cm
721.602 293.895 m 721.602 325.895 l S Q
q 1 0 0 -1 0 325.905701 cm
609.602 293.895 m 609.602 325.895 l S Q
q 1 0 0 -1 0 325.905701 cm
641.602 293.895 m 641.602 325.895 l S Q
q 1 0 0 -1 0 325.905701 cm
305.602 293.895 m 305.602 325.895 l S Q
q 1 0 0 -1 0 325.905701 cm
321.602 293.895 m 321.602 325.895 l S Q
q 1 0 0 -1 0 325.905701 cm
337.602 293.895 m 337.602 325.895 l S Q
q 1 0 0 -1 0 325.905701 cm
353.602 293.895 m 353.602 325.895 l S Q
q 1 0 0 -1 0 325.905701 cm
369.602 293.895 m 369.602 325.895 l S Q
q 1 0 0 -1 0 325.905701 cm
397.602 293.895 m 397.602 325.895 l S Q
q 1 0 0 -1 0 325.905701 cm
415.199 293.895 m 415.199 325.895 l S Q
q 1 0 0 -1 0 325.905701 cm
433.602 293.895 m 433.602 325.895 l S Q
q 1 0 0 -1 0 325.905701 cm
445.602 293.895 m 445.602 325.895 l S Q
q 1 0 0 -1 0 325.905701 cm
463.199 293.895 m 463.199 325.895 l S Q
q 1 0 0 -1 0 325.905701 cm
497.602 293.895 m 497.602 325.895 l S Q
q 1 0 0 -1 0 325.905701 cm
513.602 293.895 m 513.602 325.895 l S Q
q 1 0 0 -1 0 325.905701 cm
529.602 293.895 m 529.602 325.895 l S Q
q 1 0 0 -1 0 325.905701 cm
545.602 293.895 m 545.602 325.895 l S Q
q 1 0 0 -1 0 325.905701 cm
561.602 293.895 m 561.602 325.895 l S Q
q 1 0 0 -1 0 325.905701 cm
391.199 293.895 m 391.199 325.895 l S Q
q 1 0 0 -1 0 325.905701 cm
409.602 293.895 m 409.602 325.895 l S Q
q 1 0 0 -1 0 325.905701 cm
421.602 293.895 m 421.602 325.895 l S Q
q 1 0 0 -1 0 325.905701 cm
439.199 293.895 m 439.199 325.895 l S Q
q 1 0 0 -1 0 325.905701 cm
457.602 293.895 m 457.602 325.895 l S Q
q 1 0 0 -1 0 325.905701 cm
475.199 293.895 m 475.199 325.895 l S Q
q 1 0 0 -1 0 325.905701 cm
427.199 293.895 m 427.199 325.895 l h
S Q
q 1 0 0 -1 0 325.905701 cm
451.199 293.895 m 451.199 325.895 l S Q
q 1 0 0 -1 0 325.905701 cm
403.199 293.895 m 403.199 325.895 l S Q
q 1 0 0 -1 0 325.905701 cm
469.602 293.895 m 469.602 325.895 l S Q
0 1 0 rg
3.2 w
q 1 0 0 -1 0 325.905701 cm
1.602 293.895 m 1.602 325.895 l S Q
q 1 0 0 -1 0 325.905701 cm
225.602 293.895 m 225.602 325.895 l S Q
q 1 0 0 -1 0 325.905701 cm
337.602 293.895 m 337.602 325.895 l S Q
q 1 0 0 -1 0 325.905701 cm
397.602 293.895 m 397.602 325.895 l S Q
q 1 0 0 -1 0 325.905701 cm
427.199 325.895 m 427.199 293.895 l S Q
q 1 0 0 -1 0 325.905701 cm
457.602 325.895 m 457.602 293.895 l S Q
q 1 0 0 -1 0 325.905701 cm
497.602 325.895 m 497.602 293.895 l S Q
q 1 0 0 -1 0 325.905701 cm
577.602 325.895 m 577.602 293.895 l S Q
q 1 0 0 -1 0 325.905701 cm
769.602 325.895 m 769.602 293.895 l S Q
Q Q
showpage
%%Trailer
count op_count sub {pop} repeat
countdictstack dict_count sub {end} repeat
cairo_eps_state restore
%%EOF
