%!PS-Adobe-3.0 EPSF-3.0
%%Creator: cairo 1.11.2 (http://cairographics.org)
%%CreationDate: Sun Mar 13 15:46:33 2016
%%Pages: 1
%%DocumentData: Clean7Bit
%%LanguageLevel: 2
%%BoundingBox: 0 -1 772 326
%%EndComments
%%BeginProlog
/cairo_eps_state save def
/dict_count countdictstack def
/op_count count 1 sub def
userdict begin
/q { gsave } bind def
/Q { grestore } bind def
/cm { 6 array astore concat } bind def
/w { setlinewidth } bind def
/J { setlinecap } bind def
/j { setlinejoin } bind def
/M { setmiterlimit } bind def
/d { setdash } bind def
/m { moveto } bind def
/l { lineto } bind def
/c { curveto } bind def
/h { closepath } bind def
/re { exch dup neg 3 1 roll 5 3 roll moveto 0 rlineto
      0 exch rlineto 0 rlineto closepath } bind def
/S { stroke } bind def
/f { fill } bind def
/f* { eofill } bind def
/n { newpath } bind def
/W { clip } bind def
/W* { eoclip } bind def
/BT { } bind def
/ET { } bind def
/pdfmark where { pop globaldict /?pdfmark /exec load put }
    { globaldict begin /?pdfmark /pop load def /pdfmark
    /cleartomark load def end } ifelse
/BDC { mark 3 1 roll /BDC pdfmark } bind def
/EMC { mark /EMC pdfmark } bind def
/cairo_store_point { /cairo_point_y exch def /cairo_point_x exch def } def
/Tj { show currentpoint cairo_store_point } bind def
/TJ {
  {
    dup
    type /stringtype eq
    { show } { -0.001 mul 0 cairo_font_matrix dtransform rmoveto } ifelse
  } forall
  currentpoint cairo_store_point
} bind def
/cairo_selectfont { cairo_font_matrix aload pop pop pop 0 0 6 array astore
    cairo_font exch selectfont cairo_point_x cairo_point_y moveto } bind def
/Tf { pop /cairo_font exch def /cairo_font_matrix where
      { pop cairo_selectfont } if } bind def
/Td { matrix translate cairo_font_matrix matrix concatmatrix dup
      /cairo_font_matrix exch def dup 4 get exch 5 get cairo_store_point
      /cairo_font where { pop cairo_selectfont } if } bind def
/Tm { 2 copy 8 2 roll 6 array astore /cairo_font_matrix exch def
      cairo_store_point /cairo_font where { pop cairo_selectfont } if } bind def
/g { setgray } bind def
/rg { setrgbcolor } bind def
/d1 { setcachedevice } bind def
%%EndProlog
%%Page: 1 1
%%BeginPageSetup
%%PageBoundingBox: 0 -1 772 326
%%EndPageSetup
q 0 -1 772 327 rectclip q
0 325.906 772 -326 re W n
0 g
3.2 w
0 J
0 j
[] 0.0 d
4 M q 1 0 0 -1 0 325.905701 cm
1.602 277.895 m 33.602 261.895 5.539 262.063 205.453 247.039 c 433.602 
229.895 352.293 -75.719 403.219 20.172 c 497.602 197.895 481.602 197.895
 769.602 277.895 c S Q
0.8 w
q 1 0 0 -1 0 325.905701 cm
1.602 277.895 m 769.602 277.895 l S Q
1.6 w
q 1 0 0 -1 0 325.905701 cm
1.602 309.895 m 769.602 309.895 l S Q
q 1 0 0 -1 0 325.905701 cm
1.602 325.895 m 1.602 293.895 l S Q
q 1 0 0 -1 0 325.905701 cm
769.602 325.895 m 769.602 293.895 l S Q
q 1 0 0 -1 0 325.905701 cm
1.602 325.895 m 1.602 293.895 l S Q
q 1 0 0 -1 0 325.905701 cm
577.602 293.895 m 577.602 325.895 l S Q
q 1 0 0 -1 0 325.905701 cm
769.602 293.895 m 769.602 325.895 l S Q
0 0 1 rg
0.8 w
q 1 0 0 -1 0 325.905701 cm
225.602 293.895 m 225.602 325.895 l S Q
q 1 0 0 -1 0 325.905701 cm
337.602 293.895 m 337.602 325.895 l S Q
q 1 0 0 -1 0 325.905701 cm
397.602 293.895 m 397.602 325.895 l S Q
q 1 0 0 -1 0 325.905701 cm
497.602 293.895 m 497.602 325.895 l S Q
q 1 0 0 -1 0 325.905701 cm
457.602 293.895 m 457.602 325.895 l S Q
q 1 0 0 -1 0 325.905701 cm
427.199 293.895 m 427.199 325.895 l h
S Q
0 1 0 rg
3.2 w
q 1 0 0 -1 0 325.905701 cm
1.602 293.895 m 1.602 325.895 l S Q
q 1 0 0 -1 0 325.905701 cm
225.602 293.895 m 225.602 325.895 l S Q
q 1 0 0 -1 0 325.905701 cm
337.602 293.895 m 337.602 325.895 l S Q
q 1 0 0 -1 0 325.905701 cm
397.602 293.895 m 397.602 325.895 l S Q
q 1 0 0 -1 0 325.905701 cm
427.199 325.895 m 427.199 293.895 l S Q
q 1 0 0 -1 0 325.905701 cm
457.602 325.895 m 457.602 293.895 l S Q
q 1 0 0 -1 0 325.905701 cm
497.602 325.895 m 497.602 293.895 l S Q
q 1 0 0 -1 0 325.905701 cm
577.602 325.895 m 577.602 293.895 l S Q
q 1 0 0 -1 0 325.905701 cm
769.602 325.895 m 769.602 293.895 l S Q
1 0 0 rg
84.742 69.011 m 84.742 66.8 82.953 65.011 80.742 65.011 c 78.535 65.011
 76.742 66.8 76.742 69.011 c 76.742 71.218 78.535 73.011 80.742 73.011 c
 82.953 73.011 84.742 71.218 84.742 69.011 c h
f
1.6 w
1 J
1 j
q 1 0 0 -1 0 325.905701 cm
84.742 256.895 m 84.742 259.105 82.953 260.895 80.742 260.895 c 78.535 
260.895 76.742 259.105 76.742 256.895 c 76.742 254.688 78.535 252.895 80.742
 252.895 c 82.953 252.895 84.742 254.688 84.742 256.895 c h
S Q
309.742 116.296 m 309.742 114.085 307.953 112.296 305.742 112.296 c 303.535
 112.296 301.742 114.085 301.742 116.296 c 301.742 118.503 303.535 120.296
 305.742 120.296 c 307.953 120.296 309.742 118.503 309.742 116.296 c h
f
q 1 0 0 -1 0 325.905701 cm
309.742 209.609 m 309.742 211.82 307.953 213.609 305.742 213.609 c 303.535
 213.609 301.742 211.82 301.742 209.609 c 301.742 207.402 303.535 205.609
 305.742 205.609 c 307.953 205.609 309.742 207.402 309.742 209.609 c h
S Q
349.602 163.726 m 349.602 161.515 347.809 159.726 345.602 159.726 c 343.391
 159.726 341.602 161.515 341.602 163.726 c 341.602 165.933 343.391 167.726
 345.602 167.726 c 347.809 167.726 349.602 165.933 349.602 163.726 c h
f
q 1 0 0 -1 0 325.905701 cm
349.602 162.18 m 349.602 164.391 347.809 166.18 345.602 166.18 c 343.391
 166.18 341.602 164.391 341.602 162.18 c 341.602 159.973 343.391 158.18 
345.602 158.18 c 347.809 158.18 349.602 159.973 349.602 162.18 c h
S Q
410.887 300.011 m 410.887 297.8 409.094 296.011 406.887 296.011 c 404.676
 296.011 402.887 297.8 402.887 300.011 c 402.887 302.218 404.676 304.011
 406.887 304.011 c 409.094 304.011 410.887 302.218 410.887 300.011 c h
f
q 1 0 0 -1 0 325.905701 cm
410.887 25.895 m 410.887 28.105 409.094 29.895 406.887 29.895 c 404.676
 29.895 402.887 28.105 402.887 25.895 c 402.887 23.688 404.676 21.895 406.887
 21.895 c 409.094 21.895 410.887 23.688 410.887 25.895 c h
S Q
445.602 233.152 m 445.602 230.945 443.809 229.152 441.602 229.152 c 439.391
 229.152 437.602 230.945 437.602 233.152 c 437.602 235.363 439.391 237.152
 441.602 237.152 c 443.809 237.152 445.602 235.363 445.602 233.152 c h
f
q 1 0 0 -1 0 325.905701 cm
445.602 92.754 m 445.602 94.961 443.809 96.754 441.602 96.754 c 439.391
 96.754 437.602 94.961 437.602 92.754 c 437.602 90.543 439.391 88.754 441.602
 88.754 c 443.809 88.754 445.602 90.543 445.602 92.754 c h
S Q
486.742 169.152 m 486.742 166.945 484.953 165.152 482.742 165.152 c 480.535
 165.152 478.742 166.945 478.742 169.152 c 478.742 171.363 480.535 173.152
 482.742 173.152 c 484.953 173.152 486.742 171.363 486.742 169.152 c h
f
q 1 0 0 -1 0 325.905701 cm
486.742 156.754 m 486.742 158.961 484.953 160.754 482.742 160.754 c 480.535
 160.754 478.742 158.961 478.742 156.754 c 478.742 154.543 480.535 152.754
 482.742 152.754 c 484.953 152.754 486.742 154.543 486.742 156.754 c h
S Q
561.313 115.726 m 561.313 113.515 559.523 111.726 557.313 111.726 c 555.105
 111.726 553.313 113.515 553.313 115.726 c 553.313 117.933 555.105 119.726
 557.313 119.726 c 559.523 119.726 561.313 117.933 561.313 115.726 c h
f
q 1 0 0 -1 0 325.905701 cm
561.313 210.18 m 561.313 212.391 559.523 214.18 557.313 214.18 c 555.105
 214.18 553.313 212.391 553.313 210.18 c 553.313 207.973 555.105 206.18 
557.313 206.18 c 559.523 206.18 561.313 207.973 561.313 210.18 c h
S Q
715.313 64.011 m 715.313 61.8 713.523 60.011 711.313 60.011 c 709.105 60.011
 707.313 61.8 707.313 64.011 c 707.313 66.218 709.105 68.011 711.313 68.011
 c 713.523 68.011 715.313 66.218 715.313 64.011 c h
f
q 1 0 0 -1 0 325.905701 cm
715.313 261.895 m 715.313 264.105 713.523 265.895 711.313 265.895 c 709.105
 265.895 707.313 264.105 707.313 261.895 c 707.313 259.688 709.105 257.895
 711.313 257.895 c 713.523 257.895 715.313 259.688 715.313 261.895 c h
S Q
0 1 0 rg
3.2 w
q 1 0 0 -1 0 325.905701 cm
1.602 257.895 224 20 re S Q
q 1 0 0 -1 0 325.905701 cm
225.602 209.895 112 68 re S Q
q 1 0 0 -1 0 325.905701 cm
337.602 161.895 60 116 re S Q
q 1 0 0 -1 0 325.905701 cm
397.602 25.895 29.598 252 re S Q
q 1 0 0 -1 0 325.905701 cm
427.199 93.094 30.398 184.801 re S Q
q 1 0 0 -1 0 325.905701 cm
457.602 157.094 40 120.801 re S Q
q 1 0 0 -1 0 325.905701 cm
497.602 209.895 80 68 re S Q
q 1 0 0 -1 0 325.905701 cm
577.602 261.895 192 16 re S Q
Q Q
showpage
%%Trailer
count op_count sub {pop} repeat
countdictstack dict_count sub {end} repeat
cairo_eps_state restore
%%EOF
